{
    "openapi": "3.0.0",
    "info": {
        "title": "Project api",
        "description": "Project OpenApi description",
        "version": "1.0.0"
    },
    "paths": {
        "/api/rbc": {
            "get": {
                "tags": [
                    "Rbc resource"
                ],
                "summary": "Display a listing of the resource.",
                "operationId": "f98805ed8db5e84891e0b7ba5020ddce",
                "parameters": [
                    {
                        "name": "page",
                        "in": "query",
                        "description": "nullable|integer",
                        "example": 1
                    },
                    {
                        "name": "sort",
                        "in": "query",
                        "description": "nullable|in:date-asc,date-desc",
                        "example": "date-desc"
                    },
                    {
                        "name": "fields[0]",
                        "in": "query",
                        "description": "nullable|array|in:name,desc,published_at,author,img",
                        "example": "name"
                    },
                    {
                        "name": "fields[1]",
                        "in": "query",
                        "description": "nullable|array|in:name,desc,published_at,author,img",
                        "example": "desc"
                    },
                    {
                        "name": "fields[2]",
                        "in": "query",
                        "description": "nullable|array|in:name,desc,published_at,author,img",
                        "example": "published_at"
                    },
                    {
                        "name": "fields[3]",
                        "in": "query",
                        "description": "nullable|array|in:name,desc,published_at,author,img",
                        "example": "author"
                    },
                    {
                        "name": "fields[4]",
                        "in": "query",
                        "description": "nullable|array|in:name,desc,published_at,author,img",
                        "example": "img"
                    }
                ],
                "responses": {
                    "200": {
                        "description": "ok",
                        "content": {
                            "application/json": {
                                "schema": {
                                    "example": {
                                        "code": "ok"
                                    }
                                }
                            }
                        }
                    },
                    "422": {
                        "description": "Validate error"
                    }
                },
                "security": [
                    {
                        "bearerAuth": []
                    }
                ]
            }
        }
    },
    "components": {
        "schemas": {
            "Rbc": {
                "required": [],
                "properties": {
                    "id": {
                        "description": "id",
                        "type": "integer",
                        "example": 1
                    },
                    "name": {
                        "description": "name",
                        "type": "string",
                        "example": "name"
                    },
                    "desc": {
                        "description": "desc",
                        "type": "string",
                        "example": "desc"
                    },
                    "author": {
                        "description": "author",
                        "type": "string",
                        "example": "author"
                    },
                    "img": {
                        "description": "img",
                        "type": "img",
                        "example": "img"
                    },
                    "published_at": {
                        "description": "published_at",
                        "type": "string",
                        "format": "datetime",
                        "default": "2023-02-02 18:31:45"
                    },
                    "created_at": {
                        "description": "created_at",
                        "type": "string",
                        "format": "datetime",
                        "default": "2023-02-02 18:31:45"
                    },
                    "updated_at": {
                        "description": "updated_at",
                        "type": "string",
                        "format": "datetime",
                        "default": "2023-02-02 18:31:45"
                    }
                },
                "type": "object"
            }
        }
    }
}